{
   "testbed": [
      {
         "testbed": {
            "cost_per_cluster": [
               {
                  "cluster": "m400 ", 
                  "price": 0.21166604925820542
               }, 
               {
                  "cluster": "m510", 
                  "price": 0.4546498231972963
               }, 
               {
                  "cluster": "xl170", 
                  "price": 0.1890671842923467
               }
            ], 
            "dc-slice-controller": {
               "dc-slice-provider": "cloudlabUtah", 
               "ip": "22.90.239.129", 
               "port": 935
            }, 
            "dc-slice-point-of-presence": {
               "ip": "22.90.239.1", 
               "pop-name": "Edge Router 1", 
               "requirements": {
                  "bandwidth_gb": 1
               }, 
               "reservation-protocol": "BGP", 
               "router-type": "Wired Router-cisco"
            }, 
            "description": "Fed4Fire testbed cloudlabUtah.", 
            "id": "cloudlabUtah", 
            "location": {
               "continent": "AMERICA", 
               "country": "USA"
            }, 
            "nodes": [
               {
                  "node_cluster": {
                     "available_nodes": 255, 
                     "cpu_cores": 8, 
                     "cpu_ghz": 2.4, 
                     "cpu_model": "octa-core", 
                     "cpu_number": 1, 
                     "cpu_vendor": "APM(Atlas/A57)", 
                     "memory_mb": 65536, 
                     "min_storage_gb": 120, 
                     "name": "m400 ", 
                     "nics_bw": 10, 
                     "nics_description": "10 GB NIC", 
                     "rspec_hwtype": " ['m400', 'aarch64', 'pc']", 
                     "storage_description": "120", 
                     "total_cpu_cores": 8, 
                     "total_nodes": 315
                  }
               }, 
               {
                  "node_cluster": {
                     "available_nodes": 37, 
                     "cpu_cores": 8, 
                     "cpu_ghz": 2.0, 
                     "cpu_model": "octa-core", 
                     "cpu_number": 1, 
                     "cpu_vendor": "Intel", 
                     "memory_mb": 65536, 
                     "min_storage_gb": 256, 
                     "name": "m510", 
                     "nics_bw": 10, 
                     "nics_description": "10 GB NIC", 
                     "rspec_hwtype": " ['m510', 'x86_64', 'pc', 'm510-vm', 'x86_64-vm', 'pcvm', 'lan']", 
                     "storage_description": "256", 
                     "total_cpu_cores": 8, 
                     "total_nodes": 270
                  }
               }, 
               {
                  "node_cluster": {
                     "available_nodes": 33, 
                     "cpu_cores": 10, 
                     "cpu_ghz": 2.4, 
                     "cpu_model": "deca core", 
                     "cpu_number": 1, 
                     "cpu_vendor": "Intel", 
                     "memory_mb": 65536, 
                     "min_storage_gb": 480, 
                     "name": "xl170", 
                     "nics_bw": 25, 
                     "nics_description": "25 GB NIC", 
                     "rspec_hwtype": " ['xl170', 'x86_64', 'pc', 'xl170-vm', 'x86_64-vm', 'pcvm', 'lan']", 
                     "storage_description": "480 GB 6G SATA SSD", 
                     "total_cpu_cores": 10, 
                     "total_nodes": 199
                  }
               }
            ]
         }
      }
   ]
}